\relax 
\providecommand*\new@tpo@label[2]{}
\abx@aux@refcontext{nyt/global//global/global}
\@input{includes/MA-titlepage.aux}
\@writefile{toc}{\boolfalse {citerequest}\boolfalse {citetracker}\boolfalse {pagetracker}\boolfalse {backtracker}\relax }
\@writefile{lof}{\boolfalse {citerequest}\boolfalse {citetracker}\boolfalse {pagetracker}\boolfalse {backtracker}\relax }
\@writefile{lot}{\boolfalse {citerequest}\boolfalse {citetracker}\boolfalse {pagetracker}\boolfalse {backtracker}\relax }
\@input{chapters/introduction.aux}
\abx@aux@cite{latex_symbols_2017}
\abx@aux@segm{0}{0}{latex_symbols_2017}
\@input{chapters/background.aux}
\@input{chapters/methods.aux}
\@input{chapters/results.aux}
\@input{chapters/discussion.aux}
\@input{chapters/conclusion.aux}
\@writefile{toc}{\defcounter {refsection}{0}\relax }\@writefile{toc}{\contentsline {chapter}{Appendix \numberline {A}Code}{8}}
\@writefile{lof}{\defcounter {refsection}{0}\relax }\@writefile{lof}{\addvspace {10\p@ }}
\@writefile{lot}{\defcounter {refsection}{0}\relax }\@writefile{lot}{\addvspace {10\p@ }}
\@writefile{toc}{\defcounter {refsection}{0}\relax }\@writefile{toc}{\contentsline {chapter}{Appendix \numberline {B}Math}{9}}
\@writefile{lof}{\defcounter {refsection}{0}\relax }\@writefile{lof}{\addvspace {10\p@ }}
\@writefile{lot}{\defcounter {refsection}{0}\relax }\@writefile{lot}{\addvspace {10\p@ }}
\@writefile{toc}{\defcounter {refsection}{0}\relax }\@writefile{toc}{\contentsline {chapter}{Appendix \numberline {C}Dataset}{10}}
\@writefile{lof}{\defcounter {refsection}{0}\relax }\@writefile{lof}{\addvspace {10\p@ }}
\@writefile{lot}{\defcounter {refsection}{0}\relax }\@writefile{lot}{\addvspace {10\p@ }}
\@input{includes/eidesstattlicheErklaerung.aux}
\global\csname @altsecnumformattrue\endcsname
